// Jest Snapshot v1, https://goo.gl/fbAQLP

exports[`Accounts AccountDetails renders and handles clicks 1`] = `
<div
  class="ant-card ant-card-bordered sc-bdnxRM dxMrKH"
  data-testid="account-details"
>
  <div
    class="ant-card-head"
  >
    <div
      class="ant-card-head-wrapper"
    >
      <div
        class="ant-card-head-title"
      >
        <span>
          USD - Unites States Dollar
        </span>
      </div>
      <div
        class="ant-card-extra"
      >
        <button
          class="ant-btn ant-btn-link ant-btn-sm ant-btn-dangerous"
          data-testid="remove-account"
          type="button"
        >
          <span
            aria-label="close"
            class="anticon anticon-close"
            role="img"
          >
            <svg
              aria-hidden="true"
              data-icon="close"
              fill="currentColor"
              focusable="false"
              height="1em"
              viewBox="64 64 896 896"
              width="1em"
            >
              <path
                d="M563.8 512l262.5-312.9c4.4-5.2.7-13.1-6.1-13.1h-79.8c-4.7 0-9.2 2.1-12.3 5.7L511.6 449.8 295.1 191.7c-3-3.6-7.5-5.7-12.3-5.7H203c-6.8 0-10.5 7.9-6.1 13.1L459.4 512 196.9 824.9A7.95 7.95 0 00203 838h79.8c4.7 0 9.2-2.1 12.3-5.7l216.5-258.1 216.5 258.1c3 3.6 7.5 5.7 12.3 5.7h79.8c6.8 0 10.5-7.9 6.1-13.1L563.8 512z"
              />
            </svg>
          </span>
        </button>
      </div>
    </div>
  </div>
  <div
    class="ant-card-body"
  >
    <input
      class="ant-input"
      type="text"
      value="987654.99"
    />
    <button
      class="ant-btn ant-btn-primary"
      type="button"
    >
      <span>
        Update
      </span>
    </button>
  </div>
</div>
`;

exports[`Accounts OpenAccount renders disabled 1`] = `
<div>
  <div
    class="ant-select sc-gtsrHT gtbsyu ant-select-single ant-select-show-arrow ant-select-show-search"
  >
    <div
      class="ant-select-selector"
    >
      <span
        class="ant-select-selection-search"
      >
        <input
          aria-activedescendant="rc_select_TEST_OR_SSR_list_0"
          aria-autocomplete="list"
          aria-controls="rc_select_TEST_OR_SSR_list"
          aria-haspopup="listbox"
          aria-owns="rc_select_TEST_OR_SSR_list"
          autocomplete="off"
          class="ant-select-selection-search-input"
          id="rc_select_TEST_OR_SSR"
          role="combobox"
          type="search"
          value=""
        />
      </span>
      <span
        class="ant-select-selection-item"
        title=""
      />
    </div>
    <span
      aria-hidden="true"
      class="ant-select-arrow"
      style="user-select: none;"
      unselectable="on"
    >
      <span
        aria-label="down"
        class="anticon anticon-down ant-select-suffix"
        role="img"
      >
        <svg
          aria-hidden="true"
          data-icon="down"
          fill="currentColor"
          focusable="false"
          height="1em"
          viewBox="64 64 896 896"
          width="1em"
        >
          <path
            d="M884 256h-75c-5.1 0-9.9 2.5-12.9 6.6L512 654.2 227.9 262.6c-3-4.1-7.8-6.6-12.9-6.6h-75c-6.5 0-10.3 7.4-6.5 12.7l352.6 486.1c12.8 17.6 39 17.6 51.7 0l352.6-486.1c3.9-5.3.1-12.7-6.4-12.7z"
          />
        </svg>
      </span>
    </span>
  </div>
  <button
    class="ant-btn ant-btn-primary"
    disabled=""
    type="button"
  >
    <span
      aria-label="plus"
      class="anticon anticon-plus"
      role="img"
    >
      <svg
        aria-hidden="true"
        data-icon="plus"
        fill="currentColor"
        focusable="false"
        height="1em"
        viewBox="64 64 896 896"
        width="1em"
      >
        <defs>
          <style />
        </defs>
        <path
          d="M482 152h60q8 0 8 8v704q0 8-8 8h-60q-8 0-8-8V160q0-8 8-8z"
        />
        <path
          d="M176 474h672q8 0 8 8v60q0 8-8 8H176q-8 0-8-8v-60q0-8 8-8z"
        />
      </svg>
    </span>
    <span>
       Open new account
    </span>
  </button>
</div>
`;

exports[`Accounts OpenAccount renders enabled and handles click 1`] = `
<div>
  <div
    class="ant-select sc-gtsrHT gtbsyu ant-select-single ant-select-show-arrow ant-select-show-search"
  >
    <div
      class="ant-select-selector"
    >
      <span
        class="ant-select-selection-search"
      >
        <input
          aria-activedescendant="rc_select_TEST_OR_SSR_list_0"
          aria-autocomplete="list"
          aria-controls="rc_select_TEST_OR_SSR_list"
          aria-haspopup="listbox"
          aria-owns="rc_select_TEST_OR_SSR_list"
          autocomplete="off"
          class="ant-select-selection-search-input"
          id="rc_select_TEST_OR_SSR"
          role="combobox"
          type="search"
          value=""
        />
      </span>
      <span
        class="ant-select-selection-item"
      >
        USD
         - 
        United States Dollar
      </span>
    </div>
    <span
      aria-hidden="true"
      class="ant-select-arrow"
      style="user-select: none;"
      unselectable="on"
    >
      <span
        aria-label="down"
        class="anticon anticon-down ant-select-suffix"
        role="img"
      >
        <svg
          aria-hidden="true"
          data-icon="down"
          fill="currentColor"
          focusable="false"
          height="1em"
          viewBox="64 64 896 896"
          width="1em"
        >
          <path
            d="M884 256h-75c-5.1 0-9.9 2.5-12.9 6.6L512 654.2 227.9 262.6c-3-4.1-7.8-6.6-12.9-6.6h-75c-6.5 0-10.3 7.4-6.5 12.7l352.6 486.1c12.8 17.6 39 17.6 51.7 0l352.6-486.1c3.9-5.3.1-12.7-6.4-12.7z"
          />
        </svg>
      </span>
    </span>
  </div>
  <button
    class="ant-btn ant-btn-primary"
    type="button"
  >
    <span
      aria-label="plus"
      class="anticon anticon-plus"
      role="img"
    >
      <svg
        aria-hidden="true"
        data-icon="plus"
        fill="currentColor"
        focusable="false"
        height="1em"
        viewBox="64 64 896 896"
        width="1em"
      >
        <defs>
          <style />
        </defs>
        <path
          d="M482 152h60q8 0 8 8v704q0 8-8 8h-60q-8 0-8-8V160q0-8 8-8z"
        />
        <path
          d="M176 474h672q8 0 8 8v60q0 8-8 8H176q-8 0-8-8v-60q0-8 8-8z"
        />
      </svg>
    </span>
    <span>
       Open new account
    </span>
  </button>
</div>
`;

exports[`Accounts Sorter renders 1`] = `
<div>
  <div
    class="sc-dlnjwi efElGS"
  >
    <div
      class="sc-hKFxyN epoWtC"
    >
      Order by:
    </div>
    <div
      class="sc-hKFxyN epoWtC"
    >
      <span
        class="ant-tag ant-tag-checkable ant-tag-checkable-checked"
      >
        Name
      </span>
      <span
        class="ant-tag ant-tag-checkable"
      >
        Amount
      </span>
    </div>
    <div
      class="sc-hKFxyN epoWtC"
    >
      <span
        class="ant-tag ant-tag-checkable ant-tag-checkable-checked"
      >
        Asc.
      </span>
      <span
        class="ant-tag ant-tag-checkable"
      >
        Desc.
      </span>
    </div>
  </div>
</div>
`;
